{
  "project_info": {
    "project_number": "714740281376",
    "firebase_url": "https://kaamtamam-c8346.firebaseio.com",
    "project_id": "kaamtamam-c8346",
    "storage_bucket": "kaamtamam-c8346.appspot.com"
  },
  "client": [
    {
      "client_info": {
        "mobilesdk_app_id": "1:714740281376:android:b38a66467431a6fbba4c45",
        "android_client_info": {
          "package_name": "com.kaamtamam"
        }
      },
      "oauth_client": [
        {
          "client_id": "714740281376-h8eki22g91dt36kriu0sd4aflbb9lsbj.apps.googleusercontent.com",
          "client_type": 3
        }
      ],
      "api_key": [
        {
          "current_key": "AIzaSyCkG6pX4wq0GOfs-taFim3skc4dh18NNHo"
        }
      ],
      "services": {
        "appinvite_service": {
          "other_platform_oauth_client": [
            {
              "client_id": "714740281376-h8eki22g91dt36kriu0sd4aflbb9lsbj.apps.googleusercontent.com",
              "client_type": 3
            }
          ]
        }
      }
    }
  ],
  "configuration_version": "1"
}