{
    "Categories": [
        {
            "name": "Fruits  {'&'} Vegetables",
            "image": "Fruits.jpg",
            "id": 1
        },
        {
            "name": "Beverages",
            "image": "Beverages.png",
            "id": 1
        },
        {
            "name": "Branded Food",
            "image": "BrandedFood.jpg",
            "id": 1
        },
        {
            "name": "Dairy,Bakery",
            "image": "Dairy.jpg",
            "id": 1
        },
        {
            "name": "Meats",
            "image": "Meat.png",
            "id": 1
        },
        {
            "name": "Home Care",
            "image": "Meat.png",
            "id": 1
        },
        {
            "name": "Medicines",
            "image": "Meat.png"
        },
        {
            "name": "Beauty Items",
            "image": "HomeCare.png"
        }
    ],
    "products": [
        {
            "itemID": 1,
            "itemName": "Banana",
            "itemDetail": "This is fruit category",
            "itemPrice": 20,
            "unitID": 1,
            "groc_Units": null,
            "itemCategoryID": 1,
            "groc_ItemCategory": {
                "itemCategoryID": 1,
                "itemCategoryName": "Fruits",
                "imageName": null,
                "itemCateforyDescription": null
            }
        },
        {
            "itemID": 2,
            "itemName": "Mango",
            "itemDetail": "This is fruit category",
            "itemPrice": 20,
            "unitID": 2,
            "groc_Units": null,
            "itemCategoryID": 1,
            "groc_ItemCategory": {
                "itemCategoryID": 1,
                "itemCategoryName": "Fruits",
                "imageName": null,
                "itemCateforyDescription": null
            }
        },
        {
            "itemID": 3,
            "itemName": "Apple",
            "itemDetail": "This is fruit category",
            "itemPrice": 20,
            "unitID": 1,
            "groc_Units": null,
            "itemCategoryID": 1,
            "groc_ItemCategory": {
                "itemCategoryID": 1,
                "itemCategoryName": "Fruits",
                "imageName": null,
                "itemCateforyDescription": null
            }
        },
        {
            "itemID": 4,
            "itemName": "Strawberry",
            "itemDetail": "This is fruit category",
            "itemPrice": 20,
            "unitID": 3,
            "groc_Units": null,
            "itemCategoryID": 1,
            "groc_ItemCategory": {
                "itemCategoryID": 1,
                "itemCategoryName": "Fruits",
                "imageName": null,
                "itemCateforyDescription": null
            }
        },
        {
            "itemID": 5,
            "itemName": "Toamato",
            "itemDetail": "This is vegetables category",
            "itemPrice": 20,
            "unitID": 1,
            "groc_Units": null,
            "itemCategoryID": 2,
            "groc_ItemCategory": {
                "itemCategoryID": 2,
                "itemCategoryName": "Vegetables",
                "imageName": null,
                "itemCateforyDescription": null
            }
        },
        {
            "itemID": 6,
            "itemName": "Potato",
            "itemDetail": "This is vegetables category",
            "itemPrice": 20,
            "unitID": 1,
            "groc_Units": null,
            "itemCategoryID": 2,
            "groc_ItemCategory": {
                "itemCategoryID": 2,
                "itemCategoryName": "Vegetables",
                "imageName": null,
                "itemCateforyDescription": null
            }
        },
        {
            "itemID": 7,
            "itemName": "Chilli",
            "itemDetail": "This is vegetables category",
            "itemPrice": 20,
            "unitID": 1,
            "groc_Units": null,
            "itemCategoryID": 2,
            "groc_ItemCategory": {
                "itemCategoryID": 2,
                "itemCategoryName": "Vegetables",
                "imageName": null,
                "itemCateforyDescription": null
            }
        },
        {
            "itemID": 8,
            "itemName": "Cake",
            "itemDetail": "This is backed item category",
            "itemPrice": 20,
            "unitID": 1,
            "groc_Units": null,
            "itemCategoryID": 6,
            "groc_ItemCategory": {
                "itemCategoryID": 6,
                "itemCategoryName": "Baked Items",
                "imageName": null,
                "itemCateforyDescription": null
            }
        },
        {
            "itemID": 9,
            "itemName": "Pestri",
            "itemDetail": "This is backed item category",
            "itemPrice": 20,
            "unitID": 1,
            "groc_Units": null,
            "itemCategoryID": 6,
            "groc_ItemCategory": {
                "itemCategoryID": 6,
                "itemCategoryName": "Baked Items",
                "imageName": null,
                "itemCateforyDescription": null
            }
        },
        {
            "itemID": 10,
            "itemName": "Sweets",
            "itemDetail": "This is backed item category",
            "itemPrice": 20,
            "unitID": 1,
            "groc_Units": null,
            "itemCategoryID": 6,
            "groc_ItemCategory": {
                "itemCategoryID": 6,
                "itemCategoryName": "Baked Items",
                "imageName": null,
                "itemCateforyDescription": null
            }
        },
        {
            "itemID": 11,
            "itemName": "Breads",
            "itemDetail": "This is backed item category",
            "itemPrice": 20,
            "unitID": 1,
            "groc_Units": null,
            "itemCategoryID": 6,
            "groc_ItemCategory": {
                "itemCategoryID": 6,
                "itemCategoryName": "Baked Items",
                "imageName": null,
                "itemCateforyDescription": null
            }
        },
        {
            "itemID": 12,
            "itemName": "Soap",
            "itemDetail": "This is retail item category",
            "itemPrice": 20,
            "unitID": 1,
            "groc_Units": null,
            "itemCategoryID": 5,
            "groc_ItemCategory": {
                "itemCategoryID": 5,
                "itemCategoryName": "Retail Items",
                "imageName": null,
                "itemCateforyDescription": null
            }
        },
        {
            "itemID": 13,
            "itemName": "Milk Pack",
            "itemDetail": "This is retail item category",
            "itemPrice": 20,
            "unitID": 1,
            "groc_Units": null,
            "itemCategoryID": 5,
            "groc_ItemCategory": {
                "itemCategoryID": 5,
                "itemCategoryName": "Retail Items",
                "imageName": null,
                "itemCateforyDescription": null
            }
        },
        {
            "itemID": 14,
            "itemName": "Eggs",
            "itemDetail": "This is retail item category",
            "itemPrice": 20,
            "unitID": 1,
            "groc_Units": null,
            "itemCategoryID": 5,
            "groc_ItemCategory": {
                "itemCategoryID": 5,
                "itemCategoryName": "Retail Items",
                "imageName": null,
                "itemCateforyDescription": null
            }
        }
    ],
    "productsCat": [
        {
            "itemCategoryID": 1,
            "itemCategoryName": "Fruits",
            "imageName": null,
            "itemCateforyDescription": null
        },
        {
            "itemCategoryID": 2,
            "itemCategoryName": "Vegetables",
            "imageName": null,
            "itemCateforyDescription": null
        },
        {
            "itemCategoryID": 3,
            "itemCategoryName": "Meat",
            "imageName": null,
            "itemCateforyDescription": null
        },
        {
            "itemCategoryID": 4,
            "itemCategoryName": "Drinks/Beverages",
            "imageName": null,
            "itemCateforyDescription": null
        },
        {
            "itemCategoryID": 5,
            "itemCategoryName": "Retail Items",
            "imageName": null,
            "itemCateforyDescription": null
        },
        {
            "itemCategoryID": 6,
            "itemCategoryName": "Baked Items",
            "imageName": null,
            "itemCateforyDescription": null
        }
    ]
}